{
  "client": "atl",
  "vertical": "missions",
  "email_type": "enewsletter",
  "description": "",
  "mobile": 1,
  "version": "1.0.0",
  "default_pieces": [
    { "hero": ".master-email-framework/templates/rm/atl/enewsletter/parts/hero.html" },
    { "featured-story": ".master-email-framework/parts/featured-story/featured-story.html" },
    { "story": ".master-email-framework/parts/story/story.html" },
    { "story": ".master-email-framework/parts/story/story.html" },
    { "text-and-donate-button": ".master-email-framework/parts/text-and-donate-button/text-and-donate-button.html" },
    { "director-block": ".master-email-framework/templates/rm/atl/enewsletter/parts/director-block.html" }
  ],
  "template_pieces": {
    "hero": ".master-email-framework/templates/rm/atl/enewsletter/parts/hero.html",
    "featured-story": ".master-email-framework/parts/featured-story/featured-story.html",
    "director-block": ".master-email-framework/templates/rm/atl/enewsletter/parts/director-block.html",
    "story": ".master-email-framework/parts/story/story.html",
    "highlighted-cta": ".master-email-framework/parts/highlighted-cta/highlighted-cta.html",
    "body-copy": ".master-email-framework/parts/body-copy/body-copy.html",
    "sidebar": ".master-email-framework/parts/sidebar/sidebar.html",
    "text-and-donate-button": ".master-email-framework/parts/text-and-donate-button/text-and-donate-button.html",
    "gift-array": ".master-email-framework/parts/gift-array/gift-array.html",
    "johnsonbox": ".master-email-framework/parts/johnsonbox/johnsonbox.html",
    "done": ""
  }
}
