{
  "client": "generic",
  "vertical": "ac",
  "email_type": "campaign",
  "description": "",
  "mobile": 1,
  "version": "1.0.0",
  "default_pieces": [
    { "hero": ".master-email-framework/templates/ac/generic/campaign/parts/hero.html" },
    { "text-and-donate-button": ".master-email-framework/templates/ac/generic/campaign/parts/text-and-donate-button.html" },
    { "body-copy": ".master-email-framework/templates/ac/generic/campaign/parts/body-copy.html" },
    { "sig": ".master-email-framework/templates/ac/generic/campaign/parts/sig.html" },
    { "solo-donate-button": ".master-email-framework/templates/ac/generic/campaign/parts/solo-donate-button.html" }
  ],
  "template_pieces": {
    "hero": ".master-email-framework/templates/ac/generic/campaign/parts/hero.html",
    "body-copy": ".master-email-framework/templates/ac/generic/campaign/parts/body-copy.html",
    "sidebar": ".master-email-framework/templates/ac/generic/campaign/parts/sidebar.html",
    "text-and-donate-button": ".master-email-framework/templates/ac/generic/campaign/parts/text-and-donate-button.html",
    "gift-array": ".master-email-framework/templates/ac/generic/campaign/parts/gift-array.html",
    "johnsonbox": ".master-email-framework/templates/ac/generic/campaign/parts/johnsonbox.html",
    "ps": ".master-email-framework/templates/ac/generic/campaign/parts/ps.html",
    "sig": ".master-email-framework/templates/ac/generic/campaign/parts/sig.html",
    "solo-donate-button": ".master-email-framework/templates/ac/generic/campaign/parts/solo-donate-button.html",
    "done": ""
  }
}
